{
  "name": "trail-of-cthulhu-unsanctioned",
  "title": "Trail of Cthulhu (Unsanctioned)",
  "description": "The Trail of Cthulhu (GUMSHOE) game from Pelgrane Press.",
  "version": "1.1.1",
  "authors": [
    {
      "name": "Neil de Carteret",
      "email": "neil-fvtt@lumphammer.com",
      "url": ""
    }
  ],
  "scripts": [],
  "esmodules": ["trail.js"],
  "styles": ["trail.css"],
  "packs": [
    {
      "name": "investigativeAbilities",
      "label": "Trail of Cthulhu Investigative Abilities",
      "system": "trail-of-cthulhu-unsanctioned",
      "path": "./packs/investigativeAbilities.db",
      "entity": "Item"
    },
    {
      "name": "generalAbilities",
      "label": "Trail of Cthulhu General Abilities",
      "system": "trail-of-cthulhu-unsanctioned",
      "path": "./packs/generalAbilities.db",
      "entity": "Item"
    }
  ],
  "languages": [],
  "gridDistance": 1,
  "gridUnits": "",
  "minimumCoreVersion": "0.7.9",
  "compatibleCoreVersion": "0.7.9",
  "initiative": "1d6",
  "url": "https://gitlab.com/n3dst4/trail-of-cthulhu-unsanctioned",
  "manifest": "https://gitlab.com/n3dst4/trail-of-cthulhu-unsanctioned/-/raw/release/src/system.json",
  "download": "https://gitlab.com/n3dst4/trail-of-cthulhu-unsanctioned/uploads/3f3fd684bcd97bac9376d23a87d4229d/trail-of-cthulhu-unsanctioned-v1.1.1.zip",
  "license": "MIT",
  "readme": "https://gitlab.com/n3dst4/trail-of-cthulhu-unsanctioned/-/blob/release/README.md",
  "bugs": "https://gitlab.com/n3dst4/trail-of-cthulhu-unsanctioned/-/issues",
  "changelog": "https://gitlab.com/n3dst4/trail-of-cthulhu-unsanctioned/-/blob/release/CHANGELOG.md"
}